Using machine learning algorithms to build artificial intelligence-based movie recommendation systems
…
avg_conf <- function(results) {
  tmp <- results %>%
    getConfusionMatrix()
  as.data.frame(Reduce("+",tmp) / length(tmp))
}

Models_avg <- Models_results %>%
  map(avg_conf) %>% 
  enframe() %>% 
  unnest(cols = value) %>% 
  mutate(n = as.factor(n)) 

Models_avg

## # A tibble: 91 x 11
##    name      TP     FP    FN    TN     N precision  recall     TPR     FPR n    
##    <chr>  <dbl>  <dbl> <dbl> <dbl> <dbl>     <dbl>   <dbl>   <dbl>   <dbl> <fct>
##  1 UBCF~  0.352  0.610  77.0  366.   444     0.366 0.00498 0.00498 0.00161 1    
##  2 UBCF~  0.943  1.94   76.4  365.   444     0.327 0.0133  0.0133  0.00522 3    
##  3 UBCF~  1.58   3.23   75.8  363.   444     0.328 0.0223  0.0223  0.00870 5    
##  4 UBCF~  3.01   6.61   74.3  360.   444     0.313 0.0429  0.0429  0.0178  10   
##  5 UBCF~  5.81  13.4    71.5  353.   444     0.302 0.0819  0.0819  0.0362  20   
##  6 UBCF~  7.94  20.3    69.4  346.   444     0.281 0.111   0.111   0.0550  30   
##  7 UBCF~ 10.2   26.2    67.1  340.   444     0.279 0.143   0.143   0.0711  40   
##  8 UBCF~ 12.1   31.7    65.2  335.   444     0.275 0.168   0.168   0.0860  50   
##  9 UBCF~ 13.6   36.2    63.7  330.   444     0.272 0.190   0.190   0.0981  60   
## 10 UBCF~ 14.8   40.5    62.5  326.   444     0.268 0.207   0.207   0.110   70   
## # ... with 81 more rows
…
